"title","Simulation menu",,,,,,,,
"prefix",,,,,,,,,
"mprefix","Maintenance",,,,,,,,
"file","MenuSimulation",,,,,,,,
"Object","Name","Data Type","Class","Units","Decimals","Low Limit","High Limit","Default","Comment"
"Simulation",,,,,,,,,
,"Day Duration","Time",,,,60,86400,86400,"Day duration (24h or other for simulation)"
,"Next Day","method",,,,,,,"Switch to next day"
,"Target Weight","Weight",,,,,,,"Current target weight (male)"
,"Target Weight Female","Weight",,,,,,,"Current target weight female"
